YEAR,COUNTRY OF PRODUCTION,PORT OF EXPORT,EXPORTER,COUNTRY,TYPE,PALM_KERNEL_EQUIVALENT_TONNES,FOB_USD
2015,"""BRAZIL""","""FOZ DO IGUACU""","""TRIANGULO ALIMENTOS LTDA""","""PARAGUAY""",Palm kernel equivalents,1.08,2268
2016,"""BRAZIL""","""FOZ DO IGUACU""","""BUNGE ALIMENTOS S/A""","""PARAGUAY""",Palm kernel equivalents,6.236,10708
2017,"""BRAZIL""","""FOZ DO IGUACU""","""BUNGE ALIMENTOS S/A""","""PARAGUAY""",Palm kernel equivalents,17.545,35973
2015,"""BRAZIL""","""FOZ DO IGUACU""","""FORTINBRAS COMERCIAL E INDUSTRIAL LTDA.""","""PARAGUAY""",Palm kernel equivalents,0.48,1219
2016,"""BRAZIL""","""FOZ DO IGUACU""","""FORTINBRAS COMERCIAL E INDUSTRIAL LTDA.""","""PARAGUAY""",Palm kernel equivalents,0.6,1906
2017,"""BRAZIL""","""FOZ DO IGUACU""","""FORTINBRAS COMERCIAL E INDUSTRIAL LTDA.""","""PARAGUAY""",Palm kernel equivalents,1.12,4797
2015,"""BRAZIL""","""JAGUARAO""","""BUNGE ALIMENTOS S/A""","""URUGUAY""",Palm kernel equivalents,21.75,37800
2016,"""BRAZIL""","""MUNGUBA""","""COMPANHIA REFINADORA DA AMAZONIA""","""NETHERLANDS""",Palm kernel equivalents,125.09,187837
2015,"""BRAZIL""","""MUNGUBA""","""COMPANHIA REFINADORA DA AMAZONIA""","""UNITED STATES""",Palm kernel equivalents,50.4,107079
2016,"""BRAZIL""","""MUNGUBA""","""COMPANHIA REFINADORA DA AMAZONIA""","""UNITED STATES""",Palm kernel equivalents,31.92,58367
2016,"""BRAZIL""","""PONTA PORA""","""ARM IMPORTADORA E EXPORTADORA EIRELI""","""PARAGUAY""",Palm kernel equivalents,0.21,2484
2017,"""BRAZIL""","""PONTA PORA""","""ARM IMPORTADORA E EXPORTADORA EIRELI""","""PARAGUAY""",Palm kernel equivalents,0.21,2703
2016,"""BRAZIL""","""UNKNOWN PORT BRAZIL""","""COMPANHIA REFINADORA DA AMAZONIA""","""UNITED STATES""",Palm kernel equivalents,16.8,30067
2017,"""BRAZIL""","""UNKNOWN PORT BRAZIL""","""COMPANHIA REFINADORA DA AMAZONIA""","""UNITED STATES""",Palm kernel equivalents,109.2,247334
2017,"""BRAZIL""","""UNKNOWN PORT BRAZIL""","""AGROPALMA S/A""","""NETHERLANDS""",Palm kernel equivalents,20.86,52459
2016,"""BRAZIL""","""CAMPINAS""","""CITROLEO INDUSTRIA E COMERCIO DE OLEOS ESSENCIAIS LTDA""","""UNITED STATES""",Palm kernel equivalents,0.001,7
2015,"""BRAZIL""","""SANTOS""","""SABARA QUIMICOS E INGREDIENTES S/A""","""FRANCE""",Palm kernel equivalents,1.228,7423
2015,"""BRAZIL""","""SANTOS""","""SABARA QUIMICOS E INGREDIENTES S/A""","""PHILIPPINES""",Palm kernel equivalents,0.018,121
2015,"""BRAZIL""","""SANTOS""","""SABARA QUIMICOS E INGREDIENTES S/A""","""UNITED STATES""",Palm kernel equivalents,40.328,294310
2015,"""BRAZIL""","""SANTOS""","""RHODIA POLIAMIDA E ESPECIALIDADES LTDA""","""COLOMBIA""",Palm kernel equivalents,0.72,2865
2016,"""BRAZIL""","""SANTOS""","""RHODIA POLIAMIDA E ESPECIALIDADES LTDA""","""COLOMBIA""",Palm kernel equivalents,2.716,10686
2017,"""BRAZIL""","""SANTOS""","""RHODIA POLIAMIDA E ESPECIALIDADES LTDA""","""COLOMBIA""",Palm kernel equivalents,1.944,7680
2015,"""BRAZIL""","""SANTOS""","""BERACA INGREDIENTES NATURAIS S.A""","""BELGIUM""",Palm kernel equivalents,3.498,22054
2016,"""BRAZIL""","""SANTOS""","""BERACA INGREDIENTES NATURAIS S.A""","""BELGIUM""",Palm kernel equivalents,0.324,2780
2017,"""BRAZIL""","""SANTOS""","""BERACA INGREDIENTES NATURAIS S.A""","""BELGIUM""",Palm kernel equivalents,3.49,23122
2016,"""BRAZIL""","""SANTOS""","""BERACA INGREDIENTES NATURAIS S.A""","""CHINA (MAINLAND)""",Palm kernel equivalents,0.054,356
2015,"""BRAZIL""","""SANTOS""","""BERACA INGREDIENTES NATURAIS S.A""","""FRANCE""",Palm kernel equivalents,1.5,7873
2016,"""BRAZIL""","""SANTOS""","""BERACA INGREDIENTES NATURAIS S.A""","""FRANCE""",Palm kernel equivalents,1.248,7186
2017,"""BRAZIL""","""SANTOS""","""BERACA INGREDIENTES NATURAIS S.A""","""ITALY""",Palm kernel equivalents,1.52,6790
2017,"""BRAZIL""","""SANTOS""","""BERACA INGREDIENTES NATURAIS S.A""","""JAPAN""",Palm kernel equivalents,4.18,24779
2015,"""BRAZIL""","""SANTOS""","""BERACA INGREDIENTES NATURAIS S.A""","""SOUTH KOREA""",Palm kernel equivalents,0.036,242
2016,"""BRAZIL""","""SANTOS""","""BERACA INGREDIENTES NATURAIS S.A""","""SOUTH KOREA""",Palm kernel equivalents,0.18,1211
2016,"""BRAZIL""","""SANTOS""","""BERACA INGREDIENTES NATURAIS S.A""","""SINGAPORE""",Palm kernel equivalents,0.288,1742
2015,"""BRAZIL""","""SANTOS""","""BERACA INGREDIENTES NATURAIS S.A""","""UNITED STATES""",Palm kernel equivalents,21.678,172903
2016,"""BRAZIL""","""SANTOS""","""BERACA INGREDIENTES NATURAIS S.A""","""UNITED STATES""",Palm kernel equivalents,57.412,428120
2017,"""BRAZIL""","""SANTOS""","""BERACA INGREDIENTES NATURAIS S.A""","""UNITED STATES""",Palm kernel equivalents,57.388,385366
2015,"""BRAZIL""","""SANTOS""","""STD COMERCIO E EXPORTACAO LTDA - EPP""","""AUSTRALIA""",Palm kernel equivalents,0.007,128
2015,"""BRAZIL""","""SANTOS""","""FORTINBRAS COMERCIAL E INDUSTRIAL LTDA.""","""CANADA""",Palm kernel equivalents,1.26,4656
2016,"""BRAZIL""","""SANTOS""","""FORTINBRAS COMERCIAL E INDUSTRIAL LTDA.""","""CANADA""",Palm kernel equivalents,0.54,1828
2015,"""BRAZIL""","""SANTOS""","""FORTINBRAS COMERCIAL E INDUSTRIAL LTDA.""","""UNITED STATES""",Palm kernel equivalents,10.8,37553
2016,"""BRAZIL""","""SANTOS""","""FORTINBRAS COMERCIAL E INDUSTRIAL LTDA.""","""UNITED STATES""",Palm kernel equivalents,9.18,40115
2017,"""BRAZIL""","""SANTOS""","""FORTINBRAS COMERCIAL E INDUSTRIAL LTDA.""","""UNITED STATES""",Palm kernel equivalents,9.36,44855
2016,"""BRAZIL""","""BELEM""","""EMBRAIMPEX EMPRESA BRASILEIRA DE IMPORTACOES E EXPORTAC""","""FRENCH GUYANA""",Palm kernel equivalents,0.08,444
2015,"""BRAZIL""","""BELEM""","""COMPANHIA REFINADORA DA AMAZONIA""","""GERMANY""",Palm kernel equivalents,2466.445,2436958
2015,"""BRAZIL""","""BELEM""","""COMPANHIA REFINADORA DA AMAZONIA""","""NETHERLANDS""",Palm kernel equivalents,4785.276,4546189
2016,"""BRAZIL""","""BELEM""","""COMPANHIA REFINADORA DA AMAZONIA""","""NETHERLANDS""",Palm kernel equivalents,502.97,791568
2017,"""BRAZIL""","""BELEM""","""AGROPALMA S/A""","""NETHERLANDS""",Palm kernel equivalents,104.94,177873
2016,"""BRAZIL""","""BELEM""","""EMBRAIMPEX EMPRESA BRASILEIRA DE IMPORTACOES E EXPORTACOES L""","""FRENCH GUYANA""",Palm kernel equivalents,0.05,326
2017,"""BRAZIL""","""BELEM""","""EMBRAIMPEX EMPRESA BRASILEIRA DE IMPORTACOES E EXPORTACOES L""","""FRENCH GUYANA""",Palm kernel equivalents,0.43,2904
2015,"""BRAZIL""","""BELEM""","""ROMERA IND. E COM. DE PERFUME EIRELI  - ME""","""GERMANY""",Palm kernel equivalents,0.097,883
2016,"""BRAZIL""","""BELEM""","""ROMERA IND. E COM. DE PERFUME EIRELI  - ME""","""GERMANY""",Palm kernel equivalents,0.032,246
2017,"""BRAZIL""","""BELEM""","""ROMERA IND. E COM. DE PERFUME EIRELI  - ME""","""GERMANY""",Palm kernel equivalents,0.128,1383
2015,"""BRAZIL""","""BELEM""","""ROMERA IND. E COM. DE PERFUME EIRELI  - ME""","""SWITZERLAND""",Palm kernel equivalents,0.025,184
2017,"""BRAZIL""","""BELEM""","""ROMERA IND. E COM. DE PERFUME EIRELI  - ME""","""SWITZERLAND""",Palm kernel equivalents,0.05,640
2015,"""BRAZIL""","""BELEM""","""ROMERA IND. E COM. DE PERFUME EIRELI  - ME""","""UNITED KINGDOM""",Palm kernel equivalents,0.05,351
2015,"""BRAZIL""","""BELEM""","""ROMERA IND. E COM. DE PERFUME EIRELI  - ME""","""UNITED STATES""",Palm kernel equivalents,0.028,151
2015,"""BRAZIL""","""URUGUAIANA""","""BRF S.A.""","""ARGENTINA""",Palm kernel equivalents,53.4,65682
2017,"""BRAZIL""","""URUGUAIANA""","""BRF S.A.""","""ARGENTINA""",Palm kernel equivalents,942.53,1180189
2016,"""BRAZIL""","""URUGUAIANA""","""RHODIA POLIAMIDA E ESPECIALIDADES LTDA""","""ARGENTINA""",Palm kernel equivalents,2.16,6048
2016,"""BRAZIL""","""URUGUAIANA""","""CITROLEO INDUSTRIA E COMERCIO DE OLEOS ESSENCIAIS LTDA""","""CHILE""",Palm kernel equivalents,0.1,590
2015,"""BRAZIL""","""URUGUAIANA""","""DHAYMERS INDUSTRIA E COMERCIO DE PRODUTOS QUIMICOS LTDA""","""ARGENTINA""",Palm kernel equivalents,2.718,8648
2016,"""BRAZIL""","""URUGUAIANA""","""FORTINBRAS COMERCIAL E INDUSTRIAL LTDA.""","""CHILE""",Palm kernel equivalents,0.38,1565
2017,"""BRAZIL""","""URUGUAIANA""","""FORTINBRAS COMERCIAL E INDUSTRIAL LTDA.""","""CHILE""",Palm kernel equivalents,0.28,1347
2015,"""BRAZIL""","""FORTALEZA""","""COOPERATIVA DOS PEQUENOS PRODUTORES AGROEXTRATIVISTAS D""","""NETHERLANDS""",Palm kernel equivalents,100.8,346604
2016,"""BRAZIL""","""FORTALEZA""","""COOPERATIVA DOS PEQUENOS PRODUTORES AGROEXTRATIVISTAS D""","""NETHERLANDS""",Palm kernel equivalents,72,245872
2016,"""BRAZIL""","""FORTALEZA""","""COOPERATIVA DOS PEQUENOS PRODUTORES AGROEXTRATIVISTAS DE LAG""","""NETHERLANDS""",Palm kernel equivalents,28.8,97677
2017,"""BRAZIL""","""FORTALEZA""","""COOPERATIVA DOS PEQUENOS PRODUTORES AGROEXTRATIVISTAS DE LAG""","""NETHERLANDS""",Palm kernel equivalents,129.6,444458
2015,"""BRAZIL""","""SAO PAULO""","""SABARA QUIMICOS E INGREDIENTES S/A""","""GERMANY""",Palm kernel equivalents,0.18,1639
2015,"""BRAZIL""","""SAO PAULO""","""SABARA QUIMICOS E INGREDIENTES S/A""","""ITALY""",Palm kernel equivalents,0.18,2277
2015,"""BRAZIL""","""SAO PAULO""","""SABARA QUIMICOS E INGREDIENTES S/A""","""SPAIN""",Palm kernel equivalents,0.018,100
2016,"""BRAZIL""","""SAO PAULO""","""INDUSTRIA QUIMICA ANASTACIO S A""","""JAPAN""",Palm kernel equivalents,4.32,10756
2016,"""BRAZIL""","""SAO PAULO""","""INDUSTRIA QUIMICA ANASTACIO S A""","""UNITED STATES""",Palm kernel equivalents,0.36,1350
2015,"""BRAZIL""","""SAO PAULO""","""RHODIA POLIAMIDA E ESPECIALIDADES LTDA""","""COLOMBIA""",Palm kernel equivalents,0.36,1684
2017,"""BRAZIL""","""SAO PAULO""","""CITROLEO INDUSTRIA E COMERCIO DE OLEOS ESSENCIAIS LTDA""","""CHINA (MAINLAND)""",Palm kernel equivalents,0.05,187
2016,"""BRAZIL""","""SAO PAULO""","""BERACA INGREDIENTES NATURAIS S.A""","""ARGENTINA""",Palm kernel equivalents,0.018,671
2015,"""BRAZIL""","""SAO PAULO""","""BERACA INGREDIENTES NATURAIS S.A""","""AUSTRALIA""",Palm kernel equivalents,0.09,1666
2015,"""BRAZIL""","""SAO PAULO""","""BERACA INGREDIENTES NATURAIS S.A""","""BELGIUM""",Palm kernel equivalents,0.18,553
2017,"""BRAZIL""","""SAO PAULO""","""BERACA INGREDIENTES NATURAIS S.A""","""TAIWAN""",Palm kernel equivalents,0.036,490
2015,"""BRAZIL""","""SAO PAULO""","""BERACA INGREDIENTES NATURAIS S.A""","""FRANCE""",Palm kernel equivalents,0.234,1117
2017,"""BRAZIL""","""SAO PAULO""","""BERACA INGREDIENTES NATURAIS S.A""","""FRANCE""",Palm kernel equivalents,0.38,1829
2015,"""BRAZIL""","""SAO PAULO""","""BERACA INGREDIENTES NATURAIS S.A""","""GERMANY""",Palm kernel equivalents,0.018,332
2017,"""BRAZIL""","""SAO PAULO""","""BERACA INGREDIENTES NATURAIS S.A""","""INDIA""",Palm kernel equivalents,0.018,137
2015,"""BRAZIL""","""SAO PAULO""","""BERACA INGREDIENTES NATURAIS S.A""","""ITALY""",Palm kernel equivalents,0.468,6067
2016,"""BRAZIL""","""SAO PAULO""","""BERACA INGREDIENTES NATURAIS S.A""","""ITALY""",Palm kernel equivalents,0.324,3547
2017,"""BRAZIL""","""SAO PAULO""","""BERACA INGREDIENTES NATURAIS S.A""","""ITALY""",Palm kernel equivalents,0.522,6320
2015,"""BRAZIL""","""SAO PAULO""","""BERACA INGREDIENTES NATURAIS S.A""","""SOUTH KOREA""",Palm kernel equivalents,0.09,1666
2016,"""BRAZIL""","""SAO PAULO""","""BERACA INGREDIENTES NATURAIS S.A""","""SOUTH KOREA""",Palm kernel equivalents,0.144,1468
2017,"""BRAZIL""","""SAO PAULO""","""BERACA INGREDIENTES NATURAIS S.A""","""MEXICO""",Palm kernel equivalents,0.018,129
2015,"""BRAZIL""","""SAO PAULO""","""BERACA INGREDIENTES NATURAIS S.A""","""UNITED KINGDOM""",Palm kernel equivalents,0.45,2491
2015,"""BRAZIL""","""SAO PAULO""","""DHAYMERS INDUSTRIA E COMERCIO DE PRODUTOS QUIMICOS LTDA""","""ARGENTINA""",Palm kernel equivalents,0.55,1733
2015,"""BRAZIL""","""SAO PAULO""","""DHAYMERS INDUSTRIA E COMERCIO DE PRODUTOS QUIMICOS LTDA""","""COLOMBIA""",Palm kernel equivalents,0.972,4190
2017,"""BRAZIL""","""SAO PAULO""","""FORTINBRAS COMERCIAL E INDUSTRIAL LTDA.""","""UNITED STATES""",Palm kernel equivalents,0.72,4642
2017,"""BRAZIL""","""SAO PAULO""","""ROMERA IND. E COM. DE PERFUME EIRELI  - ME""","""AUSTRALIA""",Palm kernel equivalents,0.01,101
2016,"""BRAZIL""","""SAO PAULO""","""ROMERA IND. E COM. DE PERFUME EIRELI  - ME""","""GERMANY""",Palm kernel equivalents,0.006,240
2016,"""BRAZIL""","""SAO PAULO""","""ROMERA IND. E COM. DE PERFUME EIRELI  - ME""","""HUNGARY""",Palm kernel equivalents,0.018,178
2016,"""BRAZIL""","""SAO PAULO""","""ROMERA IND. E COM. DE PERFUME EIRELI  - ME""","""SOUTH KOREA""",Palm kernel equivalents,0.001,86
2016,"""BRAZIL""","""SAO PAULO""","""ROMERA IND. E COM. DE PERFUME EIRELI  - ME""","""UNITED KINGDOM""",Palm kernel equivalents,0.371,4121
2016,"""BRAZIL""","""SAO PAULO""","""ROMERA IND. E COM. DE PERFUME EIRELI  - ME""","""UNITED STATES""",Palm kernel equivalents,0.014,194
2015,"""BRAZIL""","""SAO PAULO""","""PETER PAIVA EXCLUSIVIDADES ARTESANAIS LTDA - ME""","""PORTUGAL""",Palm kernel equivalents,0.001,5
2016,"""BRAZIL""","""SAO PAULO""","""PETER PAIVA EXCLUSIVIDADES ARTESANAIS LTDA - ME""","""PORTUGAL""",Palm kernel equivalents,0.001,7
2016,"""BRAZIL""","""SAO PAULO""","""100 (POR CENTO) AMAZONIA EXPORTACAO E REPRESENTACAO LTD""","""UNITED STATES""",Palm kernel equivalents,0.002,30
2017,"""BRAZIL""","""AEROPORTO INTERNACIONAL DE VIRACOPOS""","""CITROLEO INDUSTRIA E COMERCIO DE OLEOS ESSENCIAIS LTDA""","""COLOMBIA""",Palm kernel equivalents,0.025,248
2017,"""BRAZIL""","""PARANAGUA""","""BRF S.A.""","""ARGENTINA""",Palm kernel equivalents,1212.03,1444453
2015,"""BRAZIL""","""CHUI""","""BUNGE ALIMENTOS S/A""","""URUGUAY""",Palm kernel equivalents,16.182,29340
2016,"""BRAZIL""","""CHUI""","""BUNGE ALIMENTOS S/A""","""URUGUAY""",Palm kernel equivalents,10.962,21309
2017,"""BRAZIL""","""CHUI""","""BUNGE ALIMENTOS S/A""","""URUGUAY""",Palm kernel equivalents,18.27,38197
